<?xml version="1.0" ?>
<sdf version="1.9">
  <world name="gokart_teleop">

    <!-- Handles requests to update the spherical coordinates -->
    <plugin
        filename="ignition-gazebo-user-commands-system"
        name="ignition::gazebo::systems::UserCommands">
    </plugin>

    <!-- Populates the GUI with data from the server -->
    <plugin
        filename="ignition-gazebo-scene-broadcaster-system"
        name="ignition::gazebo::systems::SceneBroadcaster">
    </plugin>

    <!-- Processes pose commands -->
    <plugin
        filename="ignition-gazebo-physics-system"
        name="ignition::gazebo::systems::Physics">
    </plugin>

    <light type="directional" name="sun">
        <cast_shadows>true</cast_shadows>
        <pose>0 0 10 0 0 0</pose>
        <diffuse>1 1 1 1</diffuse>
        <specular>0.5 0.5 0.5 1</specular>
        <attenuation>
            <range>1000</range>
            <constant>0.9</constant>
            <linear>0.01</linear>
            <quadratic>0.001</quadratic>
        </attenuation>
        <direction>-0.5 0.1 -0.9</direction>
    </light>

    <scene>
        <sky>
            <clouds>
                <speed>12</speed>
            </clouds>
        </sky>
	</scene>

    <!-- Track -->
    <include>
        <uri>race_track_1</uri>
    </include>

    <!-- Vehicle -->
    <include>
        <uri>navigator_agk</uri>
        <pose relative_to="race_track_1" degrees='true'>-2.5 -3.0 0.0 0.0 0.0 -45.0</pose>
    </include>

  </world>
</sdf>
